{
  "id": "cursemods",
  "name": "CurseMods",
  "author": "Deftware",
  "beta": true,
  "maintenance": true,
  "summary": "Press O in-game to install any CurseForge mod",
  "icon": "https://media.forgecdn.net/avatars/thumbnails/185/822/64/64/636829723898798601.png",
  "description": [
    "CurseMods automatically manages installing a mod and any of its dependencies",
    "as well as checking for game version & mod loader compatibility.",
    "All data is fetched in real-time from CurseForge.",
    "Press O in-game to open the mod menu."
  ],
  "downloads": {
    "1.16.5": [
      {
        "url": "https://media.forgecdn.net/files/3275/265/cursemods-1.0.2-fabric.jar",
        "version": "1.0.2",
        "path": {
          "type": "fabric",
          "name": "curseforge.jar"
        }
      }
    ]
  },
  "depends": [
    "fabric-api"
  ],
  "version": "1"
}
